RISC-V/riscv.vcd
$version Generated by VerilatedVcd $end
$timescale 1ps $end
 $scope module $rootio $end
 $upscope $end
 $scope module tb $end
  $var wire 32 0! XLEN [31:0] $end
  $var wire 1 *! clk $end
  $var wire 1 +! rst_n $end
  $var wire 32 # pc_out [31:0] $end
  $scope module cpu_inst $end
   $var wire 32 0! XLEN [31:0] $end
   $var wire 32 1! IMEM_WORDS [31:0] $end
   $var wire 32 1! DMEM_WORDS [31:0] $end
   $var wire 1 *! clk $end
   $var wire 1 +! rst_n $end
   $var wire 32 # pc_out [31:0] $end
   $var wire 32 < regs[0] [31:0] $end
   $var wire 32 = regs[1] [31:0] $end
   $var wire 32 > regs[2] [31:0] $end
   $var wire 32 ? regs[3] [31:0] $end
   $var wire 32 @ regs[4] [31:0] $end
   $var wire 32 A regs[5] [31:0] $end
   $var wire 32 B regs[6] [31:0] $end
   $var wire 32 C regs[7] [31:0] $end
   $var wire 32 D regs[8] [31:0] $end
   $var wire 32 E regs[9] [31:0] $end
   $var wire 32 F regs[10] [31:0] $end
   $var wire 32 G regs[11] [31:0] $end
   $var wire 32 H regs[12] [31:0] $end
   $var wire 32 I regs[13] [31:0] $end
   $var wire 32 J regs[14] [31:0] $end
   $var wire 32 K regs[15] [31:0] $end
   $var wire 32 L regs[16] [31:0] $end
   $var wire 32 M regs[17] [31:0] $end
   $var wire 32 N regs[18] [31:0] $end
   $var wire 32 O regs[19] [31:0] $end
   $var wire 32 P regs[20] [31:0] $end
   $var wire 32 Q regs[21] [31:0] $end
   $var wire 32 R regs[22] [31:0] $end
   $var wire 32 S regs[23] [31:0] $end
   $var wire 32 T regs[24] [31:0] $end
   $var wire 32 U regs[25] [31:0] $end
   $var wire 32 V regs[26] [31:0] $end
   $var wire 32 W regs[27] [31:0] $end
   $var wire 32 X regs[28] [31:0] $end
   $var wire 32 Y regs[29] [31:0] $end
   $var wire 32 Z regs[30] [31:0] $end
   $var wire 32 [ regs[31] [31:0] $end
   $var wire 32 # pc [31:0] $end
   $var wire 32 \ if_id_instr [31:0] $end
   $var wire 32 $ if_id_pc [31:0] $end
   $var wire 32 % id_ex_instr [31:0] $end
   $var wire 32 & id_ex_pc [31:0] $end
   $var wire 32 ' id_ex_rdata1 [31:0] $end
   $var wire 32 ( id_ex_rdata2 [31:0] $end
   $var wire 32 ) id_ex_imm [31:0] $end
   $var wire 4 * id_ex_alu_op [3:0] $end
   $var wire 1 ] id_ex_reg_we $end
   $var wire 1 + id_ex_is_load $end
   $var wire 1 ^ id_ex_is_store $end
   $var wire 1 , id_ex_is_branch $end
   $var wire 1 - id_ex_is_jal $end
   $var wire 1 . id_ex_is_jalr $end
   $var wire 1 / id_ex_is_rtype $end
   $var wire 1 0 id_ex_is_itype_alu $end
   $var wire 5 1 id_ex_rs1 [4:0] $end
   $var wire 5 2 id_ex_rs2 [4:0] $end
   $var wire 5 _ id_ex_rd [4:0] $end
   $var wire 32 3 ex_mem_pc_plus_4 [31:0] $end
   $var wire 32 ` ex_mem_alu_out [31:0] $end
   $var wire 32 a ex_mem_wdata [31:0] $end
   $var wire 5 b ex_mem_rd [4:0] $end
   $var wire 1 c ex_mem_reg_we $end
   $var wire 1 d ex_mem_mem_we $end
   $var wire 1 4 ex_mem_is_load $end
   $var wire 1 5 ex_mem_is_jal $end
   $var wire 32 6 mem_wb_alu_out [31:0] $end
   $var wire 32 7 mem_wb_mem_rdata [31:0] $end
   $var wire 32 8 mem_wb_pc_plus_4 [31:0] $end
   $var wire 5 e mem_wb_rd [4:0] $end
   $var wire 1 f mem_wb_reg_we $end
   $var wire 1 9 mem_wb_is_load $end
   $var wire 1 : mem_wb_is_jal $end
   $var wire 2 g forward_a [1:0] $end
   $var wire 2 h forward_b [1:0] $end
   $var wire 1 i pc_stall $end
   $var wire 1 j id_ex_bubble $end
   $var wire 1 k ex_branch_taken $end
   $var wire 32 l ex_branch_target [31:0] $end
   $var wire 4 2! ALU_ADD [3:0] $end
   $var wire 4 3! ALU_SUB [3:0] $end
   $var wire 4 4! ALU_SLL [3:0] $end
   $var wire 4 5! ALU_SLT [3:0] $end
   $var wire 4 6! ALU_SLTU [3:0] $end
   $var wire 4 7! ALU_XOR [3:0] $end
   $var wire 4 8! ALU_SRL [3:0] $end
   $var wire 4 9! ALU_SRA [3:0] $end
   $var wire 4 :! ALU_OR [3:0] $end
   $var wire 4 ;! ALU_AND [3:0] $end
   $var wire 32 ,! instr_if [31:0] $end
   $var wire 7 m id_opcode [6:0] $end
   $var wire 5 n id_rd [4:0] $end
   $var wire 3 o id_funct3 [2:0] $end
   $var wire 5 p id_rs1 [4:0] $end
   $var wire 5 q id_rs2 [4:0] $end
   $var wire 7 r id_funct7 [6:0] $end
   $var wire 32 -! id_rdata1 [31:0] $end
   $var wire 32 .! id_rdata2 [31:0] $end
   $var wire 32 s id_imm_i [31:0] $end
   $var wire 32 t id_imm_s [31:0] $end
   $var wire 32 u id_imm_u_shifted [31:0] $end
   $var wire 32 v id_imm_b [31:0] $end
   $var wire 32 w id_imm_j [31:0] $end
   $var wire 1 x id_reg_we $end
   $var wire 1 y id_is_load $end
   $var wire 1 z id_is_store $end
   $var wire 1 { id_is_branch $end
   $var wire 1 | id_is_jal $end
   $var wire 1 } id_is_jalr $end
   $var wire 1 ~ id_is_rtype $end
   $var wire 1 !! id_is_itype_alu $end
   $var wire 4 "! id_alu_op [3:0] $end
   $var wire 32 #! ex_fwd_data_mem_wb [31:0] $end
   $var wire 32 ` ex_fwd_data_ex_mem [31:0] $end
   $var wire 32 $! ex_alu_a_fwd [31:0] $end
   $var wire 32 %! ex_alu_b_fwd [31:0] $end
   $var wire 32 &! ex_alu_a [31:0] $end
   $var wire 32 '! ex_alu_b [31:0] $end
   $var wire 32 (! ex_alu_out [31:0] $end
   $var wire 1 )! branch_condition_met $end
   $var wire 3 ; funct3 [2:0] $end
   $var wire 32 /! mem_dmem_rdata [31:0] $end
   $var wire 32 #! wb_data [31:0] $end
  $upscope $end
 $upscope $end
$enddefinitions $end


#0
b00000000000000000000000000000000 #
b00000000000000000000000000000000 $
b00000000000000000000000000000000 %
b00000000000000000000000000000000 &
b00000000000000000000000000000000 '
b00000000000000000000000000000000 (
b00000000000000000000000000000000 )
b0000 *
0+
0,
0-
0.
0/
00
b00000 1
b00000 2
b00000000000000000000000000000000 3
04
05
b00000000000000000000000000000000 6
b00000000000000000000000000000000 7
b00000000000000000000000000000000 8
09
0:
b000 ;
b00000000000000000000000000000000 <
b00000000000000000000000000000000 =
b00000000000000000000000000000000 >
b00000000000000000000000000000000 ?
b00000000000000000000000000000000 @
b00000000000000000000000000000000 A
b00000000000000000000000000000000 B
b00000000000000000000000000000000 C
b00000000000000000000000000000000 D
b00000000000000000000000000000000 E
b00000000000000000000000000000000 F
b00000000000000000000000000000000 G
b00000000000000000000000000000000 H
b00000000000000000000000000000000 I
b00000000000000000000000000000000 J
b00000000000000000000000000000000 K
b00000000000000000000000000000000 L
b00000000000000000000000000000000 M
b00000000000000000000000000000000 N
b00000000000000000000000000000000 O
b00000000000000000000000000000000 P
b00000000000000000000000000000000 Q
b00000000000000000000000000000000 R
b00000000000000000000000000000000 S
b00000000000000000000000000000000 T
b00000000000000000000000000000000 U
b00000000000000000000000000000000 V
b00000000000000000000000000000000 W
b00000000000000000000000000000000 X
b00000000000000000000000000000000 Y
b00000000000000000000000000000000 Z
b00000000000000000000000000000000 [
b00000000000000000000000000000000 \
0]
0^
b00000 _
b00000000000000000000000000000000 `
b00000000000000000000000000000000 a
b00000 b
0c
0d
b00000 e
0f
b00 g
b00 h
0i
0j
0k
b00000000000000000000000000000100 l
b0000000 m
b00000 n
b000 o
b00000 p
b00000 q
b0000000 r
b00000000000000000000000000000000 s
b00000000000000000000000000000000 t
b00000000000000000000000000000000 u
b00000000000000000000000000000000 v
b00000000000000000000000000000000 w
0x
0y
0z
0{
0|
0}
0~
0!!
b0000 "!
b00000000000000000000000000000000 #!
b00000000000000000000000000000000 $!
b00000000000000000000000000000000 %!
b00000000000000000000000000000000 &!
b00000000000000000000000000000000 '!
b00000000000000000000000000000000 (!
0)!
0*!
0+!
b00000000000000000000000000010111 ,!
b00000000000000000000000000000000 -!
b00000000000000000000000000000000 .!
b00000000000000000000000000000000 /!
b00000000000000000000000000100000 0!
b00000000000000000000010000000000 1!
b0000 2!
b0001 3!
b0010 4!
b0011 5!
b0100 6!
b0101 7!
b0110 8!
b0111 9!
b1000 :!
b1001 ;!
#5000
1*!
#10000
0*!
#15000
1*!
#20000
0*!
1+!
#25000
b00000000000000000000000000000100 #
b00000000000000000000000000000100 3
b00000000000000000000000000010111 \
b0010111 m
1x
1*!
b00000000000000000000000000000001 ,!
#30000
0*!
#35000
b00000000000000000000000000001000 #
b00000000000000000000000000000100 $
b00000000000000000000000000010111 %
b00000000000000000000000000000100 8
b00000000000000000000000000000001 \
1]
b0000001 m
0x
1*!
b00000000000000000000000000000011 ,!
#40000
0*!
#45000
b00000000000000000000000000001100 #
b00000000000000000000000000001000 $
b00000000000000000000000000000001 %
b00000000000000000000000000000100 &
b00000000000000000000000000000011 \
0]
1c
b00000000000000000000000000001000 l
b0000011 m
1x
1y
1*!
b00000000000000000000000000000000 ,!
#50000
0*!
#55000
b00000000000000000000000000010000 #
b00000000000000000000000000001100 $
b00000000000000000000000000000011 %
b00000000000000000000000000001000 &
1+
b00000000000000000000000000001000 3
b00000000000000000000000000000000 \
1]
0c
1f
b00000000000000000000000000001100 l
b0000000 m
0x
0y
1*!
b00000000000000000000000000010011 ,!
#60000
0*!
#65000
b00000000000000000000000000010100 #
b00000000000000000000000000010000 $
b00000000000000000000000000000000 %
b00000000000000000000000000001100 &
0+
b00000000000000000000000000001100 3
14
b00000000000000000000000000001000 8
b00000000000000000000000000010011 \
0]
1c
0f
b00000000000000000000000000010000 l
b0010011 m
1x
1!!
1*!
b00000000000000000000000000000001 ,!
#70000
0*!
#75000
b00000000000000000000000000011000 #
b00000000000000000000000000010100 $
b00000000000000000000000000010011 %
b00000000000000000000000000010000 &
10
b00000000000000000000000000010000 3
04
b00000000000000000000000000001100 8
19
b00000000000000000000000000000001 \
1]
0c
1f
b00000000000000000000000000010100 l
b0000001 m
0x
0!!
1*!
#80000
0*!
#85000
b00000000000000000000000000011100 #
b00000000000000000000000000011000 $
b00000000000000000000000000000001 %
b00000000000000000000000000010100 &
00
b00000000000000000000000000010100 3
b00000000000000000000000000010000 8
09
0]
1c
0f
b00000000000000000000000000011000 l
1*!
b00000000000000000000000000000000 ,!
#90000
0*!
#95000
b00000000000000000000000000100000 #
b00000000000000000000000000011100 $
b00000000000000000000000000011000 &
b00000000000000000000000000011000 3
b00000000000000000000000000010100 8
b00000000000000000000000000000000 \
0c
1f
b00000000000000000000000000011100 l
b0000000 m
1*!
b00000000000000000000000000010001 ,!
#100000
0*!
#105000
b00000000000000000000000000100100 #
b00000000000000000000000000100000 $
b00000000000000000000000000000000 %
b00000000000000000000000000011100 &
b00000000000000000000000000011100 3
b00000000000000000000000000011000 8
b00000000000000000000000000010001 \
0f
b00000000000000000000000000100000 l
b0010001 m
1*!
b00000000000000000000000000100000 ,!
#110000
0*!
#115000
b00000000000000000000000000101000 #
b00000000000000000000000000100100 $
b00000000000000000000000000010001 %
b00000000000000000000000000100000 &
b00000000000000000000000000100000 3
b00000000000000000000000000011100 8
b00000000000000000000000000100000 \
b00000000000000000000000000100100 l
b0100000 m
1*!
b00000000000000000000000000000001 ,!
#120000
0*!
#125000
b00000000000000000000000000101100 #
b00000000000000000000000000101000 $
b00000000000000000000000000100000 %
b00000000000000000000000000100100 &
b00000000000000000000000000100100 3
b00000000000000000000000000100000 8
b00000000000000000000000000000001 \
b00000000000000000000000000101000 l
b0000001 m
1*!
b00000000000000000000000010100000 ,!
#130000
0*!
#135000
b00000000000000000000000000110000 #
b00000000000000000000000000101100 $
b00000000000000000000000000000001 %
b00000000000000000000000000101000 &
b00000000000000000000000000101000 3
b00000000000000000000000000100100 8
b00000000000000000000000010100000 \
b00000000000000000000000000101100 l
b0100000 m
b00001 n
b00000000000000000000000000000001 t
1*!
b00000000000000000000000000000001 ,!
#140000
0*!
#145000
b00000000000000000000000000110100 #
b00000000000000000000000000110000 $
b00000000000000000000000010100000 %
b00000000000000000000000000101100 &
b00000000000000000000000000101100 3
b00000000000000000000000000101000 8
b00000000000000000000000000000001 \
b00001 _
b00000000000000000000000000110000 l
b0000001 m
b00000 n
b00000000000000000000000000000000 t
1*!
b00000000000000000000000000010001 ,!
#150000
0*!
#155000
b00000000000000000000000000111000 #
b00000000000000000000000000110100 $
b00000000000000000000000000000001 %
b00000000000000000000000000110000 &
b00000000000000000000000000110000 3
b00000000000000000000000000101100 8
b00000000000000000000000000010001 \
b00000 _
b00001 b
b00000000000000000000000000110100 l
b0010001 m
1*!
b00000000000000000000000010010101 ,!
#160000
0*!
#165000
b00000000000000000000000000111100 #
b00000000000000000000000000111000 $
b00000000000000000000000000010001 %
b00000000000000000000000000110100 &
b00000000000000000000000000110100 3
b00000000000000000000000000110000 8
b00000000000000000000000010010101 \
b00000 b
b00001 e
b00000000000000000000000000111000 l
b0010101 m
b00001 n
b00000000000000000000000000000001 t
1*!
b00000000000000000000000001000111 ,!
#170000
0*!
#175000
b00000000000000000000000001000000 #
b00000000000000000000000000111100 $
b00000000000000000000000010010101 %
b00000000000000000000000000111000 &
b00000000000000000000000000111000 3
b00000000000000000000000000110100 8
b00000000000000000000000001000111 \
b00001 _
b00000 e
b00000000000000000000000000111100 l
b1000111 m
b00000 n
b00000000000000000000000000000000 t
1*!
b00000000000000000000000000111110 ,!
#180000
0*!
#185000
b00000000000000000000000001000100 #
b00000000000000000000000001000000 $
b00000000000000000000000001000111 %
b00000000000000000000000000111100 &
b00000000000000000000000000111100 3
b00000000000000000000000000111000 8
b00000000000000000000000000111110 \
b00000 _
b00001 b
b00000000000000000000000001000000 l
b0111110 m
1*!
b00000000000000000000000011000100 ,!
#190000
0*!
#195000
b00000000000000000000000001001000 #
b00000000000000000000000001000100 $
b00000000000000000000000000111110 %
b00000000000000000000000001000000 &
b00000000000000000000000001000000 3
b00000000000000000000000000111100 8
b00000000000000000000000011000100 \
b00000 b
b00001 e
b00000000000000000000000001000100 l
b1000100 m
b00001 n
b00000000000000000000000000000001 t
1*!
b00000000000000000000000010011101 ,!
#200000
0*!
#205000
b00000000000000000000000001001100 #
b00000000000000000000000001001000 $
b00000000000000000000000011000100 %
b00000000000000000000000001000100 &
b00000000000000000000000001000100 3
b00000000000000000000000001000000 8
b00000000000000000000000010011101 \
b00001 _
b00000 e
b00000000000000000000000001001000 l
b0011101 m
1*!
b00000000000000000000000001000111 ,!
#210000
0*!
#215000
b00000000000000000000000001010000 #
b00000000000000000000000001001100 $
b00000000000000000000000010011101 %
b00000000000000000000000001001000 &
b00000000000000000000000001001000 3
b00000000000000000000000001000100 8
b00000000000000000000000001000111 \
b00001 b
b00000000000000000000000001001100 l
b1000111 m
b00000 n
b00000000000000000000000000000000 t
1*!
b00000000000000000000000000111110 ,!
#220000
0*!
#225000
b00000000000000000000000001010100 #
b00000000000000000000000001010000 $
b00000000000000000000000001000111 %
b00000000000000000000000001001100 &
b00000000000000000000000001001100 3
b00000000000000000000000001001000 8
b00000000000000000000000000111110 \
b00000 _
b00001 e
b00000000000000000000000001010000 l
b0111110 m
1*!
b00000000000000000000000011000110 ,!
#230000
0*!
#235000
b00000000000000000000000001011000 #
b00000000000000000000000001010100 $
b00000000000000000000000000111110 %
b00000000000000000000000001010000 &
b00000000000000000000000001010000 3
b00000000000000000000000001001100 8
b00000000000000000000000011000110 \
b00000 b
b00000000000000000000000001010100 l
b1000110 m
b00001 n
b00000000000000000000000000000001 t
1*!
b00000000000000000000000010100010 ,!
#240000
0*!
#245000
b00000000000000000000000001011100 #
b00000000000000000000000001011000 $
b00000000000000000000000011000110 %
b00000000000000000000000001010100 &
b00000000000000000000000001010100 3
b00000000000000000000000001010000 8
b00000000000000000000000010100010 \
b00001 _
b00000 e
b00000000000000000000000001011000 l
b0100010 m
1*!
b00000000000000000000000001000111 ,!
#250000
0*!
#255000
b00000000000000000000000001100000 #
b00000000000000000000000001011100 $
b00000000000000000000000010100010 %
b00000000000000000000000001011000 &
b00000000000000000000000001011000 3
b00000000000000000000000001010100 8
b00000000000000000000000001000111 \
b00001 b
b00000000000000000000000001011100 l
b1000111 m
b00000 n
b00000000000000000000000000000000 t
1*!
b00000000000000000000000010110010 ,!
#260000
0*!
#265000
b00000000000000000000000001100100 #
b00000000000000000000000001100000 $
b00000000000000000000000001000111 %
b00000000000000000000000001011100 &
b00000000000000000000000001011100 3
b00000000000000000000000001011000 8
b00000000000000000000000010110010 \
b00000 _
b00001 e
b00000000000000000000000001100000 l
b0110010 m
b00001 n
b00000000000000000000000000000001 t
1*!
b00000000000000000000000001000110 ,!
#270000
0*!
#275000
b00000000000000000000000001101000 #
b00000000000000000000000001100100 $
b00000000000000000000000010110010 %
b00000000000000000000000001100000 &
b00000000000000000000000001100000 3
b00000000000000000000000001011100 8
b00000000000000000000000001000110 \
b00001 _
b00000 b
b00000000000000000000000001100100 l
b1000110 m
b00000 n
b00000000000000000000000000000000 t
1*!
b00000000000000000000000000010011 ,!
#280000
0*!
#285000
b00000000000000000000000001101100 #
b00000000000000000000000001101000 $
b00000000000000000000000001000110 %
b00000000000000000000000001100100 &
b00000000000000000000000001100100 3
b00000000000000000000000001100000 8
b00000000000000000000000000010011 \
b00000 _
b00001 b
b00000 e
b00000000000000000000000001101000 l
b0010011 m
1x
1!!
1*!
b00000000000000000000000000000111 ,!
#290000
0*!
#295000
b00000000000000000000000001110000 #
b00000000000000000000000001101100 $
b00000000000000000000000000010011 %
b00000000000000000000000001101000 &
10
b00000000000000000000000001101000 3
b00000000000000000000000001100100 8
b00000000000000000000000000000111 \
1]
b00000 b
b00001 e
b00000000000000000000000001101100 l
b0000111 m
0x
0!!
1*!
b00000000000000000000000000100000 ,!
#300000
0*!
#305000
b00000000000000000000000001110100 #
b00000000000000000000000001110000 $
b00000000000000000000000000000111 %
b00000000000000000000000001101100 &
00
b00000000000000000000000001101100 3
b00000000000000000000000001101000 8
b00000000000000000000000000100000 \
0]
1c
b00000 e
b00000000000000000000000001110000 l
b0100000 m
1*!
b00000000000000000000000000000101 ,!
#310000
0*!
#315000
b00000000000000000000000001111000 #
b00000000000000000000000001110100 $
b00000000000000000000000000100000 %
b00000000000000000000000001110000 &
b00000000000000000000000001110000 3
b00000000000000000000000001101100 8
b00000000000000000000000000000101 \
0c
1f
b00000000000000000000000001110100 l
b0000101 m
1*!
b00000000000000000000000010110110 ,!
#320000
0*!
#325000
b00000000000000000000000001111100 #
b00000000000000000000000001111000 $
b00000000000000000000000000000101 %
b00000000000000000000000001110100 &
b00000000000000000000000001110100 3
b00000000000000000000000001110000 8
b00000000000000000000000010110110 \
0f
b00000000000000000000000001111000 l
b0110110 m
b00001 n
b00000000000000000000000000000001 t
1*!
b00000000000000000000000010010111 ,!
#330000
0*!
#335000
b00000000000000000000000010000000 #
b00000000000000000000000001111100 $
b00000000000000000000000010110110 %
b00000000000000000000000001111000 &
b00000000000000000000000001111000 3
b00000000000000000000000001110100 8
b00000000000000000000000010010111 \
b00001 _
b00000000000000000000000001111100 l
b0010111 m
1x
1*!
b00000000000000000000000000111110 ,!
#340000
0*!
#345000
b00000000000000000000000010000100 #
b00000000000000000000000010000000 $
b00000000000000000000000010010111 %
b00000000000000000000000001111100 &
b00000000000000000000000001111100 3
b00000000000000000000000001111000 8
b00000000000000000000000000111110 \
1]
b00001 b
b00000000000000000000000010000000 l
b0111110 m
b00000 n
b00000000000000000000000000000000 t
0x
b00000000000000000000000001111100 &!
b00000000000000000000000001111100 (!
1*!
b00000000000000000000000011001000 ,!
#350000
0*!
#355000
b00000000000000000000000010001000 #
b00000000000000000000000010000100 $
b00000000000000000000000000111110 %
b00000000000000000000000010000000 &
b00000000000000000000000010000000 3
b00000000000000000000000001111100 8
b00000000000000000000000011001000 \
0]
b00000 _
b00000000000000000000000001111100 `
1c
b00001 e
b00000000000000000000000010000100 l
b1001000 m
b00001 n
b00000000000000000000000000000001 t
b00000000000000000000000000000000 &!
b00000000000000000000000000000000 (!
1*!
b00000000000000000000000010010011 ,!
#360000
0*!
#365000
b00000000000000000000000010001100 #
b00000000000000000000000010001000 $
b00000000000000000000000011001000 %
b00000000000000000000000010000100 &
b00000000000000000000000010000100 3
b00000000000000000000000001111100 6
b00000000000000000000000010000000 8
b00000000000000000000000010010011 \
b00001 _
b00000000000000000000000000000000 `
b00000 b
0c
1f
b00000000000000000000000010001000 l
b0010011 m
1x
1!!
b00000000000000000000000001111100 #!
1*!
b00000000000000000000000000000111 ,!
#370000
0*!
#375000
b00000000000000000000000010010000 #
b00000000000000000000000010001100 $
b00000000000000000000000010010011 %
b00000000000000000000000010001000 &
10
b00000000000000000000000010001000 3
b00000000000000000000000000000000 6
b00000000000000000000000010000100 8
b00000000000000000000000001111100 =
b00000000000000000000000000000111 \
1]
b00001 b
b00000 e
0f
b00000000000000000000000010001100 l
b0000111 m
b00000 n
b00000000000000000000000000000000 t
0x
0!!
b00000000000000000000000000000000 #!
1*!
b00000000000000000000000011000000 ,!
#380000
0*!
#385000
b00000000000000000000000010010100 #
b00000000000000000000000010010000 $
b00000000000000000000000000000111 %
b00000000000000000000000010001100 &
00
b00000000000000000000000010001100 3
b00000000000000000000000010001000 8
b00000000000000000000000011000000 \
0]
b00000 _
1c
b00001 e
b00000000000000000000000010010000 l
b1000000 m
b00001 n
b00000000000000000000000000000001 t
1*!
b00000000000000000000000000001001 ,!
#390000
0*!
#395000
b00000000000000000000000010011000 #
b00000000000000000000000010010100 $
b00000000000000000000000011000000 %
b00000000000000000000000010010000 &
b00000000000000000000000010010000 3
b00000000000000000000000010001100 8
b00000000000000000000000000001001 \
b00001 _
b00000 b
0c
1f
b00000000000000000000000010010100 l
b0001001 m
b00000 n
b00000000000000000000000000000000 t
1*!
b00000000000000000000000010110111 ,!
#400000
0*!
#405000
b00000000000000000000000010011100 #
b00000000000000000000000010011000 $
b00000000000000000000000000001001 %
b00000000000000000000000010010100 &
b00000000000000000000000010010100 3
b00000000000000000000000010010000 8
b00000000000000000000000000000000 =
b00000000000000000000000010110111 \
b00000 _
b00001 b
b00000 e
0f
b00000000000000000000000010011000 l
b0110111 m
b00001 n
b00000000000000000000000000000001 t
1x
1*!
b00000000000000000000000000000110 ,!
#410000
0*!
#415000
b00000000000000000000000010100000 #
b00000000000000000000000010011100 $
b00000000000000000000000010110111 %
b00000000000000000000000010011000 &
b00000000000000000000000010011000 3
b00000000000000000000000010010100 8
b00000000000000000000000000000110 \
1]
b00001 _
b00000 b
b00001 e
b00000000000000000000000010011100 l
b0000110 m
b00000 n
b00000000000000000000000000000000 t
0x
1*!
b00000000000000000000000000000000 ,!
#420000
0*!
#425000
b00000000000000000000000010100100 #
b00000000000000000000000010100000 $
b00000000000000000000000000000110 %
b00000000000000000000000010011100 &
b00000000000000000000000010011100 3
b00000000000000000000000010011000 8
b00000000000000000000000000000000 \
0]
b00000 _
b00001 b
1c
b00000 e
b00000000000000000000000010100000 l
b0000000 m
1*!
b00000000000000000000000000010000 ,!
#430000
0*!
#435000
b00000000000000000000000010101000 #
b00000000000000000000000010100100 $
b00000000000000000000000000000000 %
b00000000000000000000000010100000 &
b00000000000000000000000010100000 3
b00000000000000000000000010011100 8
b00000000000000000000000000010000 \
b00000 b
0c
b00001 e
1f
b00000000000000000000000010100100 l
b0010000 m
1*!
b00000000000000000000000010000101 ,!
#440000
0*!
#445000
b00000000000000000000000010101100 #
b00000000000000000000000010101000 $
b00000000000000000000000000010000 %
b00000000000000000000000010100100 &
b00000000000000000000000010100100 3
b00000000000000000000000010100000 8
b00000000000000000000000010000101 \
b00000 e
0f
b00000000000000000000000010101000 l
b0000101 m
b00001 n
b00000000000000000000000000000001 t
1*!
b00000000000000000000000000000111 ,!
#450000
0*!
#455000
b00000000000000000000000010110000 #
b00000000000000000000000010101100 $
b00000000000000000000000010000101 %
b00000000000000000000000010101000 &
b00000000000000000000000010101000 3
b00000000000000000000000010100100 8
b00000000000000000000000000000111 \
b00001 _
b00000000000000000000000010101100 l
b0000111 m
b00000 n
b00000000000000000000000000000000 t
1*!
b00000000000000000000000000100011 ,!
#460000
0*!
#465000
b00000000000000000000000010110100 #
b00000000000000000000000010110000 $
b00000000000000000000000000000111 %
b00000000000000000000000010101100 &
b00000000000000000000000010101100 3
b00000000000000000000000010101000 8
b00000000000000000000000000100011 \
b00000 _
b00001 b
b00000000000000000000000010110000 l
b0100011 m
1z
1*!
b00000000000000000000000010000000 ,!
#470000
0*!
#475000
b00000000000000000000000010111000 #
b00000000000000000000000010110100 $
b00000000000000000000000000100011 %
b00000000000000000000000010110000 &
b00000000000000000000000010110000 3
b00000000000000000000000010101100 8
b00000000000000000000000010000000 \
1^
b00000 b
b00001 e
b00000000000000000000000010110100 l
b0000000 m
b00001 n
b00000000000000000000000000000001 t
0z
1*!
b00000000000000000000000011100110 ,!
#480000
0*!
#485000
b00000000000000000000000010111100 #
b00000000000000000000000010111000 $
b00000000000000000000000010000000 %
b00000000000000000000000010110100 &
b00000000000000000000000010110100 3
b00000000000000000000000010110000 8
b00000000000000000000000011100110 \
0^
b00001 _
1d
b00000 e
b00000000000000000000000010111000 l
b1100110 m
1*!
b00000000000000000000000000000000 ,!
#490000
0*!
#495000
b00000000000000000000000011000000 #
b00000000000000000000000010111100 $
b00000000000000000000000011100110 %
b00000000000000000000000010111000 &
b00000000000000000000000010111000 3
b00000000000000000000000010110100 8
b00000000000000000000000000000000 \
b00001 b
0d
b00000000000000000000000010111100 l
b0000000 m
b00000 n
b00000000000000000000000000000000 t
1*!
b00000000000000000000000000000011 ,!
#500000
0*!
#505000
b00000000000000000000000011000100 #
b00000000000000000000000011000000 $
b00000000000000000000000000000000 %
b00000000000000000000000010111100 &
b00000000000000000000000010111100 3
b00000000000000000000000010111000 8
b00000000000000000000000000000011 \
b00000 _
b00001 e
b00000000000000000000000011000000 l
b0000011 m
1x
1y
1*!
b00000000000000000000000011000111 ,!
#510000
0*!
#515000
b00000000000000000000000011001000 #
b00000000000000000000000011000100 $
b00000000000000000000000000000011 %
b00000000000000000000000011000000 &
1+
b00000000000000000000000011000000 3
b00000000000000000000000010111100 8
b00000000000000000000000011000111 \
1]
b00000 b
b00000000000000000000000011000100 l
b1000111 m
b00001 n
b00000000000000000000000000000001 t
0x
0y
1*!
b00000000000000000000000000000111 ,!
#520000
0*!
#525000
b00000000000000000000000011001100 #
b00000000000000000000000011001000 $
b00000000000000000000000011000111 %
b00000000000000000000000011000100 &
0+
b00000000000000000000000011000100 3
14
b00000000000000000000000011000000 8
b00000000000000000000000000000111 \
0]
b00001 _
1c
b00000 e
b00000000000000000000000011001000 l
b0000111 m
b00000 n
b00000000000000000000000000000000 t
1*!
b00000000000000000000000000000000 ,!
#530000
0*!
#535000
b00000000000000000000000011010000 #
b00000000000000000000000011001100 $
b00000000000000000000000000000111 %
b00000000000000000000000011001000 &
b00000000000000000000000011001000 3
04
b00000000000000000000000011000100 8
19
b00000000000000000000000000000000 \
b00000 _
b00001 b
0c
1f
b00000000000000000000000011001100 l
b0000000 m
1*!
b00000000000000000000000001111101 ,!
#540000
0*!
#545000
b00000000000000000000000011010100 #
b00000000000000000000000011010000 $
b00000000000000000000000000000000 %
b00000000000000000000000011001100 &
b00000000000000000000000011001100 3
b00000000000000000000000011001000 8
09
b00000000000000000000000001111101 \
b00000 b
b00001 e
0f
b00000000000000000000000011010000 l
b1111101 m
1*!
b00000000000000000000000011111011 ,!
#550000
0*!
#555000
b00000000000000000000000011011000 #
b00000000000000000000000011010100 $
b00000000000000000000000001111101 %
b00000000000000000000000011010000 &
b00000000000000000000000011010000 3
b00000000000000000000000011001100 8
b00000000000000000000000011111011 \
b00000 e
b00000000000000000000000011010100 l
b1111011 m
b00001 n
b00000000000000000000000000000001 t
1*!
b00000000000000000000000001000010 ,!
#560000
0*!
#565000
b00000000000000000000000011011100 #
b00000000000000000000000011011000 $
b00000000000000000000000011111011 %
b00000000000000000000000011010100 &
b00000000000000000000000011010100 3
b00000000000000000000000011010000 8
b00000000000000000000000001000010 \
b00001 _
b00000000000000000000000011011000 l
b1000010 m
b00000 n
b00000000000000000000000000000000 t
1*!
b00000000000000000000000001000111 ,!
#570000
0*!
#575000
b00000000000000000000000011100000 #
b00000000000000000000000011011100 $
b00000000000000000000000001000010 %
b00000000000000000000000011011000 &
b00000000000000000000000011011000 3
b00000000000000000000000011010100 8
b00000000000000000000000001000111 \
b00000 _
b00001 b
b00000000000000000000000011011100 l
b1000111 m
1*!
b00000000000000000000000000010101 ,!
#580000
0*!
#585000
b00000000000000000000000011100100 #
b00000000000000000000000011100000 $
b00000000000000000000000001000111 %
b00000000000000000000000011011100 &
b00000000000000000000000011011100 3
b00000000000000000000000011011000 8
b00000000000000000000000000010101 \
b00000 b
b00001 e
b00000000000000000000000011100000 l
b0010101 m
1*!
b00000000000000000000000011100011 ,!
#590000
0*!
#595000
b00000000000000000000000011101000 #
b00000000000000000000000011100100 $
b00000000000000000000000000010101 %
b00000000000000000000000011100000 &
b00000000000000000000000011100000 3
b00000000000000000000000011011100 8
b00000000000000000000000011100011 \
b00000 e
b00000000000000000000000011100100 l
b1100011 m
b00001 n
b00000000000000000000000000000001 t
1{
1*!
b00000000000000000000000010010011 ,!
#600000
0*!
